[
 {
    "name": "eventTime",
    "type": "STRING",
    "mode": "REQUIRED"
  },
  {
    "fields": [
      {
        "mode": "NULLABLE",
        "name": "experimentIds",
        "type": "STRING"
      },
      {
        "mode": "NULLABLE",
        "name": "recommendationToken",
        "type": "STRING"
      }
    ],
    "mode": "NULLABLE",
    "name": "eventDetail",
    "type": "RECORD"
  },
  {
    "fields": [
      {
        "mode": "NULLABLE",
        "name": "userId",
        "type": "STRING"
      },
      {
        "mode": "REQUIRED",
        "name": "visitorId",
        "type": "STRING"
      }
    ],
    "mode": "REQUIRED",
    "name": "userInfo",
    "type": "RECORD"
  },
  {
    "fields": [
      {
        "fields": [
          {
            "mode": "REQUIRED",
            "name": "id",
            "type": "STRING"
          }
        ],
        "mode": "REPEATED",
        "name": "productDetails",
        "type": "RECORD"
      }
    ],
    "mode": "REQUIRED",
    "name": "productEventDetail",
    "type": "RECORD"
  },
  {
    "mode": "REQUIRED",
    "name": "eventType",
    "type": "STRING"
  }
]