[
        {
        "name": "id",
        "type": "STRING",
        "mode": "REQUIRED"
    },
    {
        "name": "title",
        "type": "STRING",
        "mode": "REQUIRED"
    },
    {
        "name": "categoryHierarchies",
        "type": "RECORD",
        "mode": "REPEATED",
        "fields": [
            {
                "name": "categories",
                "type": "STRING",
                "mode": "REPEATED"
            }
        ]
    }
]