[
{
    "name": "eventType",
    "type": "STRING",
    "mode": "REQUIRED"
},
    
{
    "name": "userInfo",
    "type": "RECORD",
    "mode": "REQUIRED",
    "fields": [
        {
            "name": "visitorId",
            "type": "STRING",
            "mode": "REQUIRED"
        },
        {
            "name": "userId",
            "type": "STRING",
            "mode": "NULLABLE"
        }
    ]
},

{
    "name": "productEventDetail",
    "type": "RECORD",
    "mode": "REQUIRED",
    "fields": [
        {
            "name": "productDetails",
            "type": "RECORD",
            "mode": "REPEATED",
            "fields": [
                {
                    "name": "id",
                    "type": "STRING",
                    "mode": "REQUIRED"
                },
                {
                    "name": "quantity",
                    "type": "INTEGER",
                    "mode": "REQUIRED"
                }
            ]
        }
    ]
},
    
{
    "name": "eventTime",
    "type": "STRING",
    "mode": "REQUIRED"
}

]